EJERCICIO 5/EJERCICIO5_tb.vcd
$date
	Sun Aug 09 09:51:32 2020
$end
$version
	Icarus Verilog
$end
$timescale
	1ps
$end
$scope module testbench $end
$var wire 1 ! YSOPO $end
$var wire 1 " YSOPG $end
$var wire 1 # YPOSO $end
$var wire 1 $ YPOSG $end
$var wire 1 % YMapaKarO $end
$var wire 1 & YMapaKarG $end
$var reg 1 ' AMG $end
$var reg 1 ( AMO $end
$var reg 1 ) APG $end
$var reg 1 * APO $end
$var reg 1 + ASG $end
$var reg 1 , ASO $end
$var reg 1 - BMG $end
$var reg 1 . BMO $end
$var reg 1 / BPG $end
$var reg 1 0 BPO $end
$var reg 1 1 BSG $end
$var reg 1 2 BSO $end
$var reg 1 3 CMG $end
$var reg 1 4 CMO $end
$var reg 1 5 CPG $end
$var reg 1 6 CPO $end
$var reg 1 7 CSG $end
$var reg 1 8 CSO $end
$scope module G1 $end
$var wire 1 + A $end
$var wire 1 9 A1 $end
$var wire 1 : A2 $end
$var wire 1 ; A3 $end
$var wire 1 1 B $end
$var wire 1 7 C $end
$var wire 1 < NB $end
$var wire 1 = NC $end
$var wire 1 " Y $end
$upscope $end
$scope module G2 $end
$var wire 1 ) A $end
$var wire 1 / B $end
$var wire 1 5 C $end
$var wire 1 > NA $end
$var wire 1 ? NB $end
$var wire 1 @ NC $end
$var wire 1 A O1 $end
$var wire 1 B O2 $end
$var wire 1 C O3 $end
$var wire 1 D O4 $end
$var wire 1 E O5 $end
$var wire 1 $ Y $end
$upscope $end
$scope module G3 $end
$var wire 1 ' A $end
$var wire 1 F A1 $end
$var wire 1 G A2 $end
$var wire 1 - B $end
$var wire 1 3 C $end
$var wire 1 H NB $end
$var wire 1 & Y $end
$upscope $end
$scope module OP1 $end
$var wire 1 , A $end
$var wire 1 2 B $end
$var wire 1 8 C $end
$var wire 1 ! Y $end
$upscope $end
$scope module OP2 $end
$var wire 1 * A $end
$var wire 1 0 B $end
$var wire 1 6 C $end
$var wire 1 # Y $end
$upscope $end
$scope module OP3 $end
$var wire 1 ( A $end
$var wire 1 . B $end
$var wire 1 4 C $end
$var wire 1 % Y $end
$upscope $end
$upscope $end
$enddefinitions $end
#0
$dumpvars
xH
xG
xF
xE
xD
xC
xB
xA
x@
x?
x>
x=
x<
x;
x:
x9
x8
x7
x6
x5
x4
x3
x2
x1
x0
x/
x.
x-
x,
x+
x*
x)
x(
x'
x&
x%
x$
x#
x"
x!
$end
#3
0"
1=
1<
09
0:
0;
07
01
0+
#4
0=
17
#5
1=
0<
07
11
#6
0=
17
#7
1"
19
1=
1<
07
01
1+
#8
09
0=
1:
17
#9
0"
1=
0:
0<
07
11
#10
1"
0=
1;
17
#12
0$
1B
1C
1D
1@
1E
1?
1>
0A
05
0/
0)
#13
0$
0B
0@
1A
15
#14
1@
0C
0?
1B
05
1/
#15
0$
0D
0@
1C
15
#16
1$
1@
1?
0>
1D
05
0/
1)
#17
0@
15
#18
0$
1@
0E
0?
05
1/
#19
1$
0@
1E
15
#21
0&
1H
0F
0G
03
0-
0'
#22
13
#23
0H
03
1-
#24
13
#25
1&
1F
1H
03
0-
1'
#26
1G
13
#27
0&
0F
0G
0H
03
1-
#28
1&
1G
13
#30
0!
08
02
0,
#31
18
#32
08
12
#33
18
#34
1!
08
02
1,
#35
18
#36
0!
08
12
#37
1!
18
#39
0#
06
00
0*
#40
16
#41
06
10
#42
16
#43
1#
06
00
1*
#44
16
#45
0#
06
10
#46
1#
16
#48
0%
04
0.
0(
#49
14
#50
04
1.
#51
14
#52
1%
04
0.
1(
#53
14
#54
0%
04
1.
#55
1%
14
